Pemodelan Statistika pada Data Geospasial - 2 Spasial Durbin Model
…
#Input peta SHP
shp.jkt <- read_sf("data/shp/3100_kec.shp")
# 
#Menggabungkan Data ke file SHP
gabung = inner_join(shp.jkt, DBD, by = "KODE2010")
longlat=st_coordinates(st_centroid(gabung))
#> Warning: st_centroid assumes attributes are constant over
#> geometries
gabung
#> Simple feature collection with 42 features and 17 fields
#> Geometry type: MULTIPOLYGON
#> Dimension:     XY
#> Bounding box:  xmin: 107 ymin: -6.37 xmax: 107 ymax: -6.09
#> CRS:           NA
#> # A tibble: 42 × 18
#>   PROVNO KABKOTNO KECNO KODE2010 PROVINSI    KABKOT       
#>   <chr>  <chr>    <chr> <chr>    <chr>       <chr>        
#> 1 31     75       010   3175010  DKI JAKARTA JAKARTA UTARA
#> 2 31     75       020   3175020  DKI JAKARTA JAKARTA UTARA
#> 3 31     75       030   3175030  DKI JAKARTA JAKARTA UTARA
#> 4 31     75       040   3175040  DKI JAKARTA JAKARTA UTARA
#> 5 31     75       050   3175050  DKI JAKARTA JAKARTA UTARA
#> 6 31     75       060   3175060  DKI JAKARTA JAKARTA UTARA
#> # ℹ 36 more rows
#> # ℹ 12 more variables: KECAMATAN.x <chr>, …
…
